Read Benckmark
2019-09-25 18:25:33.067276+0000
attribute=BenchmarkScalarAttribute,"clients=1,2,4,8,16,32,64,96",csvfile=bmark_py_client_read_python01_ec2-18-224-70-75.us-east-2.compute.amazonaws.com.csv,device=sys/benchmark/python01,period=15,worker=tangobenchmarks.client.python.read.Worker,worker_program=tangobenchmarks.client.python.read.Worker
Run no.,No. clients,Sum counts [read],SD [read],Sum Speed [read/s],SD [read/s],Counts [read],SD [read],Speed [read/s],SD [read/s],Time [s],SD [s],Errors
0,1,117926.0,0.0,7861.72333664,0.0,117926.0,0.0,7861.72333664,0.0,15.0000190735,0.0,0
1,2,233081,43,15538.7,2.9,116540,22,7769.3,1.4,15.000045,0.000036,0
2,4,353207,2548,23547,170,88302,637,5887,42,15.000068,0.000055,0
3,8,350809,2808,23387,187,43851,351,2923,23,15.000090,0.000055,0
4,16,349945,2165,23329,144,21872,135,1458.1,9.0,15.00022,0.00020,0
5,32,346430,2853,23095,190,10826,89,721.7,5.9,15.00037,0.00036,0
6,64,341291,2468,22751,165,5333,39,355.5,2.6,15.00091,0.00090,0
7,96,339329,4304,22620,287,3535,45,235.6,3.0,15.0013,0.0013,0
