Read Benckmark
2019-09-25 20:40:54.309138+0000
attribute=BenchmarkScalarAttribute,"clients=1,2,4,8,16,32,64,96",csvfile=bmark_cpp_client_read_java01_ec2-13-59-209-221.us-east-2.compute.amazonaws.com.csv,device=sys/benchmark/java01,period=15,worker=tangobenchmarks.client.external.Worker,worker_program=tg_benchmark_client_java_read
Run no.,No. clients,Sum counts [read],SD [read],Sum Speed [read/s],SD [read/s],Counts [read],SD [read],Speed [read/s],SD [read/s],Time [s],SD [s],Errors
0,1,56379.0,0.0,3758.6,0.0,56379.0,0.0,3758.6,0.0,15.0,0.0,0
1,2,115450,70,7696.7,4.7,57725,35,3848.3,2.3,15.0,0.0,0
2,4,203197,405,13546,27,50799,101,3386.6,6.7,15.0,0.0,0
3,8,262362,1145,17491,76,32795,143,2186.3,9.5,15.0,0.0,0
4,16,244566,3353,16304,224,15285,210,1019,14,15.0,0.0,0
5,32,212150,5192,14138,346,6630,162,442,11,15.0060,0.0067,0
6,64,198953,18428,13262,1228,3109,288,207,19,15.0016,0.0037,0
7,96,152858,27086,10188,1805,1592,282,106,19,15.0038,0.0056,0
