Read Benckmark
2019-09-25 19:12:48.055520+0000
attribute=BenchmarkScalarAttribute,"clients=1,2,4,8,16,32,64,96",csvfile=bmark_py_client_read_cpp01_ec2-18-223-159-10.us-east-2.compute.amazonaws.com.csv,device=sys/benchmark/cpp01,period=15,worker=tangobenchmarks.client.python.read.Worker,worker_program=tangobenchmarks.client.python.read.Worker
Run no.,No. clients,Sum counts [read],SD [read],Sum Speed [read/s],SD [read/s],Counts [read],SD [read],Speed [read/s],SD [read/s],Time [s],SD [s],Errors
0,1,181013.0,0.0,12067.5227839,0.0,181013.0,0.0,12067.5227839,0.0,15.000013113,0.0,0
1,2,330425,29789,22028,1986,165212,14894,11014,993,15.000041,0.000022,0
2,4,625410,8037,41694,536,156352,2009,10423,134,15.0000582,0.0000064,0
3,8,824758,29973,54983,1998,103095,3747,6873,250,15.00023,0.00038,0
4,16,788662,10733,52577,715,49291,671,3286,45,15.000102,0.000093,0
5,32,787742,8855,52515,590,24617,277,1641,18,15.00020,0.00016,0
6,64,778221,8543,51879,570,12160,133,810.6,8.9,15.00057,0.00058,0
7,96,777731,13263,51846,884,8101,138,540.1,9.2,15.00072,0.00091,0
