Read Benckmark
2019-09-25 18:40:11.004253+0000
attribute=BenchmarkScalarAttribute,"clients=1,2,4,8,16,32,64,96",csvfile=bmark_py_client_push_event_cpp01_ec2-18-224-70-75.us-east-2.compute.amazonaws.com.csv,device=sys/benchmark/cpp01,period=15,sleep=10,worker=tangobenchmarks.client.python.pushevent.Worker,worker_program=tangobenchmarks.client.python.pushevent.Worker
Run no.,No. clients,Sum counts [event],SD [event],Sum Speed [event/s],SD [event/s],Counts [event],SD [event],Speed [event/s],SD [event/s],Time [s],SD [s],Errors
0,1,1492.0,0.0,99.3599607609,0.0,1492.0,0.0,99.3599607609,0.0,15.0161089897,0.0,0
1,2,2984.0,0.0,198.7241,0.0019,1492.0,0.0,99.36205,0.00094,15.01579,0.00014,0
2,4,5968.0,0.0,397.3969,0.0048,1492.0,0.0,99.3492,0.0012,15.01773,0.00018,0
3,8,11936.0,0.0,794.743,0.065,1492.0,0.0,99.3428,0.0082,15.0187,0.0012,0
4,16,23872.0,0.0,1589.27,0.41,1492.0,0.0,99.329,0.025,15.0207,0.0038,0
5,32,47680.0,0.0,3176.14,0.72,1490.0,0.0,99.255,0.022,15.0119,0.0034,0
6,64,95232.0,0.0,6343.0,1.5,1488.0,0.0,99.110,0.024,15.0136,0.0037,0
7,96,142560.0,0.0,9496.7,3.1,1485.0,0.0,98.924,0.032,15.0115,0.0049,0
