Read Benckmark
2019-09-25 14:24:26.159939+0000
attribute=BenchmarkScalarAttribute,"clients=1,2,4,8,16,32,64,96",csvfile=bmark_py_client_read_python01_ec2-52-14-141-108.us-east-2.compute.amazonaws.com.csv,device=sys/benchmark/python01,period=15,worker=tangobenchmarks.client.python.read.Worker,worker_program=tangobenchmarks.client.python.read.Worker
Run no.,No. clients,Sum counts [read],SD [read],Sum Speed [read/s],SD [read/s],Counts [read],SD [read],Speed [read/s],SD [read/s],Time [s],SD [s],Errors
0,1,22969.0,0.0,1531.2232961,0.0,22969.0,0.0,1531.2232961,0.0,15.0004248619,0.0,0
1,2,45107,41,3007.0,2.7,22554,20,1503.5,1.4,15.0006469,0.0000051,0
2,4,88408,33,5893.8,2.2,22102.0,8.2,1473.44,0.54,15.00026,0.00014,0
3,8,174830,96,11655.2,6.4,21854,12,1456.89,0.80,15.00023,0.00014,0
4,16,314415,970,20960,65,19651,61,1310.0,4.0,15.00042,0.00034,0
5,32,313038,1779,20869,119,9782,56,652.1,3.7,15.00050,0.00032,0
6,64,312420,2977,20826,198,4882,47,325.4,3.1,15.00109,0.00097,0
7,96,312656,6672,20841,445,3257,69,217.1,4.6,15.0017,0.0021,0
