Read Benckmark
2019-09-25 14:47:45.183042+0000
attribute=BenchmarkScalarAttribute,"clients=1,2,4,8,16,32,64,96",csvfile=bmark_py_client_event_cpp01_ec2-52-14-141-108.us-east-2.compute.amazonaws.com.csv,device=sys/benchmark/cpp01,period=15,worker=tangobenchmarks.client.python.event.Worker,worker_program=tangobenchmarks.client.python.event.Worker
Run no.,No. clients,Sum counts [event],SD [event],Sum Speed [event/s],SD [event/s],Counts [event],SD [event],Speed [event/s],SD [event/s],Time [s],SD [s],Errors
0,1,7519.0,0.0,501.24381715,0.0,7519.0,0.0,501.24381715,0.0,15.0006837845,0.0,0
1,2,14805,19,986.9,1.3,7402.5,9.5,493.46,0.63,15.001271,0.000026,0
2,4,29546,19,1969.6,1.3,7386.5,4.7,492.39,0.31,15.00136,0.00051,0
3,8,57730,51,3848.1,3.4,7216.2,6.4,481.02,0.43,15.0021,0.0019,0
4,16,106228,288,7081,19,6639,18,442.6,1.2,15.0013,0.0012,0
5,32,152360,3444,10152,230,4761,108,317.3,7.2,15.0073,0.0085,0
6,64,166960,4631,11125,309,2609,72,173.8,4.8,15.0071,0.0087,0
7,96,169518,18695,11296,1246,1766,195,118,13,15.0067,0.0056,0
