Read Benckmark
2019-09-25 16:49:05.882939+0000
attribute=BenchmarkScalarAttribute,"clients=1,2,4,8,16,32,64,96",csvfile=bmark_py_client_push_event_cpp01_ec2-13-59-209-221.us-east-2.compute.amazonaws.com.csv,device=sys/benchmark/cpp01,period=15,sleep=10,worker=tangobenchmarks.client.python.pushevent.Worker,worker_program=tangobenchmarks.client.python.pushevent.Worker
Run no.,No. clients,Sum counts [event],SD [event],Sum Speed [event/s],SD [event/s],Counts [event],SD [event],Speed [event/s],SD [event/s],Time [s],SD [s],Errors
0,1,1493.0,0.0,99.3996204364,0.0,1493.0,0.0,99.3996204364,0.0,15.0201780796,0.0,0
1,2,2986.0,0.0,198.780593121,0.0,1493.0,0.0,99.3902965606,0.0,15.0215871334,0.0,0
2,4,5972.0,0.0,397.557,0.017,1493.0,0.0,99.3892,0.0041,15.02175,0.00063,0
3,8,11928.0,0.0,794.51,0.21,1491.0,0.0,99.314,0.027,15.0131,0.0041,0
4,16,23856.0,0.0,1589.10,0.47,1491.0,0.0,99.319,0.029,15.0122,0.0044,0
5,32,47712.0,0.0,3178.1,1.0,1491.0,0.0,99.317,0.032,15.0126,0.0049,0
6,64,95296.0,0.0,6348.0,1.9,1489.0,0.0,99.188,0.030,15.0119,0.0045,0
7,96,142944.0,0.0,9522.0,2.9,1489.0,0.0,99.187,0.030,15.0120,0.0045,0
