Read Benckmark
2019-09-25 16:00:17.569467+0000
attribute=BenchmarkScalarAttribute,"clients=1,2,4,8,16,32,64,96",csvfile=bmark_py_client_push_event_python01_ec2-18-223-159-10.us-east-2.compute.amazonaws.com.csv,device=sys/benchmark/python01,period=15,sleep=10,worker=tangobenchmarks.client.python.pushevent.Worker,worker_program=tangobenchmarks.client.python.pushevent.Worker
Run no.,No. clients,Sum counts [event],SD [event],Sum Speed [event/s],SD [event/s],Counts [event],SD [event],Speed [event/s],SD [event/s],Time [s],SD [s],Errors
0,1,1491.0,0.0,99.2814910143,0.0,1491.0,0.0,99.2814910143,0.0,15.0179049969,0.0,0
1,2,2982.0,0.0,198.45243,0.00020,1491.0,0.0,99.226215,0.000099,15.026271,0.000015,0
2,4,5964.0,0.0,396.9132,0.0064,1491.0,0.0,99.2283,0.0016,15.02595,0.00024,0
3,8,11928.0,0.0,794.02,0.15,1491.0,0.0,99.252,0.018,15.0223,0.0028,0
4,16,23856.0,0.0,1588.69,0.50,1491.0,0.0,99.293,0.031,15.0161,0.0047,0
5,32,47648.0,0.0,3174.4,1.0,1489.0,0.0,99.199,0.033,15.0102,0.0050,0
6,64,95168.0,0.0,6340.0,2.1,1487.0,0.0,99.062,0.033,15.0107,0.0050,0
7,96,142656.0,0.0,9503.5,3.4,1486.0,0.0,98.994,0.036,15.0110,0.0054,0
