Read Benckmark
2019-09-25 22:24:23.245956+0000
attribute=BenchmarkScalarAttribute,"clients=1,2,4,8,16,32,64,96",csvfile=bmark_cpp_client_read_python01_ec2-18-224-70-75.us-east-2.compute.amazonaws.com.csv,device=sys/benchmark/python01,period=15,worker=tangobenchmarks.client.external.Worker,worker_program=tg_benchmark_client_read
Run no.,No. clients,Sum counts [read],SD [read],Sum Speed [read/s],SD [read/s],Counts [read],SD [read],Speed [read/s],SD [read/s],Time [s],SD [s],Errors
0,1,165217.0,0.0,11014.4666667,0.0,165217.0,0.0,11014.4666667,0.0,15.0,0.0,0
1,2,291169,17,19411.1,1.1,145584.5,8.5,9705.57,0.57,15.0001,0.0,0
2,4,328453,477,21897,32,82113,119,5474.2,7.9,15.000125,0.000043,0
3,8,342435,4844,22829,323,42804,606,2854,40,15.00013,0.00012,0
4,16,340839,5874,22722,392,21302,367,1420,24,15.00026,0.00021,0
5,32,341239,4374,22749,292,10664,137,710.9,9.1,15.00039,0.00034,0
6,64,336785,4384,22451,292,5262,68,350.8,4.6,15.0010,0.0010,0
7,96,334295,4903,22284,327,3482,51,232.1,3.4,15.0014,0.0015,0
