Read Benckmark
2019-09-25 22:26:26.359531+0000
attribute=BenchmarkScalarAttribute,"clients=1,2,4,8,16,32,64,96",csvfile=bmark_py_client_read_python01_ec2-18-223-159-10.us-east-2.compute.amazonaws.com.csv,device=sys/benchmark/python01,period=15,worker=tangobenchmarks.client.python.read.Worker,worker_program=tangobenchmarks.client.python.read.Worker
Run no.,No. clients,Sum counts [read],SD [read],Sum Speed [read/s],SD [read/s],Counts [read],SD [read],Speed [read/s],SD [read/s],Time [s],SD [s],Errors
0,1,123405.0,0.0,8226.99934618,0.0,123405.0,0.0,8226.99934618,0.0,15.0000011921,0.0,0
1,2,227409,1773,15160,118,113704,886,7580,59,15.0001135,0.0000026,0
2,4,415693,836,27713,56,103923,209,6928,14,15.000070,0.000036,0
3,8,366270,2592,24418,173,45784,324,3052,22,15.000091,0.000082,0
4,16,371111,6715,24740,448,23194,420,1546,28,15.00019,0.00018,0
5,32,370333,4864,24688,324,11573,152,772,10,15.00029,0.00031,0
6,64,365576,3780,24370,252,5712,59,380.8,3.9,15.00081,0.00085,0
7,96,363332,4780,24220,319,3785,50,252.3,3.3,15.0013,0.0017,0
