Read Benckmark
2019-09-25 21:52:22.536608+0000
attribute=BenchmarkScalarAttribute,"clients=1,2,4,8,16,32,64,96",csvfile=bmark_py_client_write_java01_ec2-18-224-70-75.us-east-2.compute.amazonaws.com.csv,device=sys/benchmark/java01,period=15,shape=,value=0,worker=tangobenchmarks.client.python.write.Worker,worker_program=tangobenchmarks.client.python.write.Worker
Run no.,No. clients,Sum counts [write],SD [write],Sum Speed [write/s],SD [write/s],Counts [write],SD [write],Speed [write/s],SD [write/s],Time [s],SD [s],Errors
0,1,35311.0,0.0,2354.01581822,0.0,35311.0,0.0,2354.01581822,0.0,15.0003240108,0.0,0
1,2,68348,26,4556.5,1.7,34174,13,2278.25,0.87,15.00012,0.00011,0
2,4,103176,64,6878.3,4.3,25794,16,1719.6,1.1,15.00022,0.00016,0
3,8,104417,300,6961,20,13052,37,870.1,2.5,15.00041,0.00017,0
4,16,104715,319,6981,21,6545,20,436.3,1.3,15.00078,0.00093,0
5,32,103016,252,6867,17,3219.2,7.9,214.60,0.53,15.0013,0.0012,0
6,64,102895,298,6858,20,1607.7,4.7,107.16,0.31,15.0033,0.0027,0
7,96,103284,414,6883,28,1075.9,4.3,71.70,0.29,15.0046,0.0038,0
