Read Benckmark
2019-09-25 22:28:29.352943+0000
attribute=BenchmarkScalarAttribute,"clients=1,2,4,8,16,32,64,96",csvfile=bmark_py_client_read_cpp01_ec2-18-223-159-10.us-east-2.compute.amazonaws.com.csv,device=sys/benchmark/cpp01,period=15,worker=tangobenchmarks.client.python.read.Worker,worker_program=tangobenchmarks.client.python.read.Worker
Run no.,No. clients,Sum counts [read],SD [read],Sum Speed [read/s],SD [read/s],Counts [read],SD [read],Speed [read/s],SD [read/s],Time [s],SD [s],Errors
0,1,148777.0,0.0,9918.43813214,0.0,148777.0,0.0,9918.43813214,0.0,15.0000431538,0.0,0
1,2,285854,3300,19057,220,142927,1650,9528,110,15.0000505,0.0000024,0
2,4,537231,6910,35815,461,134308,1728,8954,115,15.000052,0.000027,0
3,8,859099,16752,57273,1117,107387,2094,7159,140,15.000085,0.000043,0
4,16,785759,6949,52384,463,49110,434,3274,29,15.000121,0.000097,0
5,32,782975,7711,52198,514,24468,241,1631,16,15.00021,0.00024,0
6,64,775373,8084,51689,539,12115,126,807.6,8.4,15.00071,0.00097,0
7,96,771554,10736,51435,716,8037,112,535.8,7.5,15.00060,0.00080,0
