Read Benckmark
2019-09-25 13:33:23.361064+0000
attribute=BenchmarkScalarAttribute,"clients=1,2,4,8,16,32,64,96",csvfile=bmark_cpp_client_read_java01_ec2-18-223-159-10.us-east-2.compute.amazonaws.com.csv,device=sys/benchmark/java01,period=15,worker=tangobenchmarks.client.external.Worker,worker_program=tg_benchmark_client_java_read
Run no.,No. clients,Sum counts [read],SD [read],Sum Speed [read/s],SD [read/s],Counts [read],SD [read],Speed [read/s],SD [read/s],Time [s],SD [s],Errors
0,1,17254.0,0.0,1150.26666667,0.0,17254.0,0.0,1150.26666667,0.0,15.0,0.0,0
1,2,33228,78,2215.2,5.2,16614,39,1107.6,2.6,15.0,0.0,0
2,4,58462,278,3897,19,14616,70,974.4,4.6,15.0,0.0,0
3,8,73324,603,4888,40,9166,75,611.0,5.0,15.0,0.0,0
4,16,82854,1422,5523,95,5178,89,345.2,5.9,15.0006,0.0011,0
5,32,43346,2396,2889,160,1355,75,90.3,5.0,15.0046,0.0057,0
6,64,27485,9312,1831,620,429,145,28.6,9.7,15.0094,0.0087,0
7,96,33028,34052,2575,2861,344,355,27,30,12.8,5.3,0
