Read Benckmark
2019-09-25 11:38:41.223278+0000
attribute=BenchmarkScalarAttribute,"clients=1,2,4,8,16,32,64,96",csvfile=bmark_py_client_read_java01_ec2-52-14-141-108.us-east-2.compute.amazonaws.com.csv,device=sys/benchmark/java01,period=15,worker=tangobenchmarks.client.python.read.Worker,worker_program=tangobenchmarks.client.python.read.Worker
Run no.,No. clients,Sum counts [read],SD [read],Sum Speed [read/s],SD [read/s],Counts [read],SD [read],Speed [read/s],SD [read/s],Time [s],SD [s],Errors
0,1,58572.0,0.0,3904.75028647,0.0,58572.0,0.0,3904.75028647,0.0,15.0001909733,0.0,0
1,2,110142,124,7342.7,8.3,55071,62,3671.4,4.1,15.000113,0.000094,0
2,4,134396,259,8959,17,33599,65,2239.9,4.3,15.00053,0.00079,0
3,8,131117,496,8741,33,16390,62,1092.6,4.1,15.00031,0.00025,0
4,16,118007,525,7867,35,7375,33,491.7,2.2,15.00065,0.00093,0
5,32,122763,791,8183,53,3836,25,255.7,1.6,15.0016,0.0018,0
6,64,122073,1418,8136,95,1907,22,127.1,1.5,15.0032,0.0033,0
7,96,117307,2560,7818,171,1222,27,81.4,1.8,15.0039,0.0041,0
